…
``` r
homicide_data %>% 
  distinct(state)
```

    ## # A tibble: 28 x 1
    ##    state
    ##    <chr>
    ##  1 NM   
    ##  2 GA   
    ##  3 MD   
    ##  4 LA   
    ##  5 AL   
    ##  6 MA   
    ##  7 NY   
    ##  8 NC   
    ##  9 IL   
    ## 10 OH   
    ## # ... with 18 more rows
…
